StartFontMetrics 4.1
FontName Interstate-Bold
FullName Interstate-Bold
Notice Copyright [c] The Font Bureau, Inc., 2003. All rights reserved.
EncodingScheme FontSpecific
FamilyName Interstate Bold
Weight Regular
Version Version 1.000;PS 001.000;hotconv 1.0.38
Characters 248
ItalicAngle 0.0
Ascender 800
Descender -200
UnderlineThickness 20
UnderlinePosition -123
IsFixedPitch false
FontBBox -62 -193 1385 910
StartCharMetrics 287
C 0 ; WX 500 ; N .notdef ; B 85 -11 255 700 ;
C 1 ; WX 500 ; N .notdef ; B 85 -11 255 700 ;
C 2 ; WX 500 ; N .notdef ; B 85 -11 255 700 ;
C 3 ; WX 500 ; N .notdef ; B 85 -11 255 700 ;
C 4 ; WX 500 ; N .notdef ; B 85 -11 255 700 ;
C 5 ; WX 500 ; N .notdef ; B 85 -11 255 700 ;
C 6 ; WX 500 ; N .notdef ; B 85 -11 255 700 ;
C 7 ; WX 500 ; N .notdef ; B 85 -11 255 700 ;
C 8 ; WX 500 ; N .notdef ; B 85 -11 255 700 ;
C 9 ; WX 500 ; N .notdef ; B 85 -11 255 700 ;
C 10 ; WX 500 ; N .notdef ; B 85 -11 255 700 ;
C 11 ; WX 500 ; N .notdef ; B 85 -11 255 700 ;
C 12 ; WX 500 ; N .notdef ; B 85 -11 255 700 ;
C 13 ; WX 500 ; N .notdef ; B 85 -11 255 700 ;
C 14 ; WX 500 ; N .notdef ; B 85 -11 255 700 ;
C 15 ; WX 500 ; N .notdef ; B 85 -11 255 700 ;
C 16 ; WX 500 ; N .notdef ; B 85 -11 255 700 ;
C 17 ; WX 500 ; N .notdef ; B 85 -11 255 700 ;
C 18 ; WX 500 ; N .notdef ; B 85 -11 255 700 ;
C 19 ; WX 500 ; N .notdef ; B 85 -11 255 700 ;
C 20 ; WX 500 ; N .notdef ; B 85 -11 255 700 ;
C 21 ; WX 500 ; N .notdef ; B 85 -11 255 700 ;
C 22 ; WX 500 ; N .notdef ; B 85 -11 255 700 ;
C 23 ; WX 500 ; N .notdef ; B 85 -11 255 700 ;
C 24 ; WX 500 ; N .notdef ; B 85 -11 255 700 ;
C 25 ; WX 500 ; N .notdef ; B 85 -11 255 700 ;
C 26 ; WX 500 ; N .notdef ; B 85 -11 255 700 ;
C 27 ; WX 500 ; N .notdef ; B 85 -11 255 700 ;
C 28 ; WX 500 ; N .notdef ; B 85 -11 255 700 ;
C 29 ; WX 500 ; N .notdef ; B 85 -11 255 700 ;
C 30 ; WX 500 ; N .notdef ; B 85 -11 255 700 ;
C 31 ; WX 500 ; N .notdef ; B 85 -11 255 700 ;
C 32 ; WX 290 ; N space ; B 85 -11 255 700 ;
C 33 ; WX 340 ; N exclam ; B 85 -11 255 700 ;
C 34 ; WX 528 ; N quotedbl ; B 57 373 471 700 ;
C 35 ; WX 740 ; N numbersign ; B 50 0 690 700 ;
C 36 ; WX 655 ; N dollar ; B 53 -100 600 800 ;
C 37 ; WX 999 ; N percent ; B 38 -11 961 711 ;
C 38 ; WX 700 ; N ampersand ; B 41 -11 688 711 ;
C 39 ; WX 284 ; N quotesingle ; B 57 373 227 700 ;
C 40 ; WX 370 ; N parenleft ; B 64 -110 327 716 ;
C 41 ; WX 370 ; N parenright ; B 43 -110 306 716 ;
C 42 ; WX 500 ; N asterisk ; B 33 260 467 700 ;
C 43 ; WX 613 ; N plus ; B 55 89 558 599 ;
C 44 ; WX 272 ; N comma ; B 50 -126 228 169 ;
C 45 ; WX 407 ; N hyphen ; B 60 294 347 432 ;
C 46 ; WX 272 ; N period ; B 42 -11 230 177 ;
C 47 ; WX 470 ; N slash ; B 4 -90 466 790 ;
C 48 ; WX 688 ; N zero ; B 50 -11 638 711 ;
C 49 ; WX 385 ; N one ; B 39 0 298 700 ;
C 50 ; WX 683 ; N two ; B 60 0 611 711 ;
C 51 ; WX 645 ; N three ; B 21 -11 588 711 ;
C 52 ; WX 695 ; N four ; B 44 0 654 700 ;
C 53 ; WX 668 ; N five ; B 51 -11 616 700 ;
C 54 ; WX 663 ; N six ; B 47 -11 620 711 ;
C 55 ; WX 631 ; N seven ; B 44 0 569 700 ;
C 56 ; WX 702 ; N eight ; B 58 -11 644 711 ;
C 57 ; WX 663 ; N nine ; B 43 -11 616 711 ;
C 58 ; WX 272 ; N colon ; B 42 -11 230 536 ;
C 59 ; WX 272 ; N semicolon ; B 42 -126 230 536 ;
C 60 ; WX 450 ; N less ; B 57 28 388 660 ;
C 61 ; WX 613 ; N equal ; B 80 161 533 527 ;
C 62 ; WX 450 ; N greater ; B 62 28 393 660 ;
C 63 ; WX 584 ; N question ; B 22 -11 546 711 ;
C 64 ; WX 836 ; N at ; B 57 -11 779 711 ;
C 65 ; WX 750 ; N A ; B 40 0 710 700 ;
C 66 ; WX 710 ; N B ; B 90 0 657 700 ;
C 67 ; WX 670 ; N C ; B 53 -11 620 711 ;
C 68 ; WX 707 ; N D ; B 90 0 657 700 ;
C 69 ; WX 650 ; N E ; B 90 0 591 700 ;
C 70 ; WX 625 ; N F ; B 90 0 591 700 ;
C 71 ; WX 698 ; N G ; B 53 -11 640 711 ;
C 72 ; WX 747 ; N H ; B 90 0 657 700 ;
C 73 ; WX 340 ; N I ; B 100 0 240 700 ;
C 74 ; WX 650 ; N J ; B 32 -11 565 700 ;
C 75 ; WX 720 ; N K ; B 90 0 700 700 ;
C 76 ; WX 620 ; N L ; B 90 0 581 700 ;
C 77 ; WX 835 ; N M ; B 90 -16 745 700 ;
C 78 ; WX 747 ; N N ; B 90 0 657 700 ;
C 79 ; WX 719 ; N O ; B 51 -11 668 711 ;
C 80 ; WX 680 ; N P ; B 90 0 637 700 ;
C 81 ; WX 714 ; N Q ; B 53 -65 661 711 ;
C 82 ; WX 714 ; N R ; B 90 0 657 700 ;
C 83 ; WX 661 ; N S ; B 56 -11 603 711 ;
C 84 ; WX 632 ; N T ; B 45 0 587 700 ;
C 85 ; WX 737 ; N U ; B 85 -11 652 700 ;
C 86 ; WX 714 ; N V ; B 40 0 674 700 ;
C 87 ; WX 881 ; N W ; B 50 0 831 700 ;
C 88 ; WX 702 ; N X ; B 45 0 657 700 ;
C 89 ; WX 714 ; N Y ; B 22 0 692 700 ;
C 90 ; WX 688 ; N Z ; B 68 0 620 700 ;
C 91 ; WX 415 ; N bracketleft ; B 95 -110 352 700 ;
C 92 ; WX 470 ; N backslash ; B 4 -90 466 790 ;
C 93 ; WX 415 ; N bracketright ; B 63 -110 320 700 ;
C 94 ; WX 578 ; N asciicircum ; B 47 382 531 700 ;
C 95 ; WX 500 ; N underscore ; B 0 -187 500 -72 ;
C 96 ; WX 500 ; N grave ; B 100 595 362 755 ;
C 97 ; WX 556 ; N a ; B 42 -11 494 536 ;
C 98 ; WX 562 ; N b ; B 67 -11 520 729 ;
C 99 ; WX 537 ; N c ; B 40 -11 501 536 ;
C 100 ; WX 562 ; N d ; B 40 -11 493 729 ;
C 101 ; WX 538 ; N e ; B 40 -11 495 536 ;
C 102 ; WX 370 ; N f ; B 38 0 338 726 ;
C 103 ; WX 562 ; N g ; B 40 -193 493 536 ;
C 104 ; WX 584 ; N h ; B 67 0 522 729 ;
C 105 ; WX 282 ; N i ; B 62 0 220 726 ;
C 106 ; WX 282 ; N j ; B -44 -193 220 726 ;
C 107 ; WX 551 ; N k ; B 67 0 523 729 ;
C 108 ; WX 282 ; N l ; B 72 0 210 729 ;
C 109 ; WX 881 ; N m ; B 67 0 819 536 ;
C 110 ; WX 584 ; N n ; B 67 0 522 536 ;
C 111 ; WX 555 ; N o ; B 40 -11 515 536 ;
C 112 ; WX 562 ; N p ; B 67 -193 520 536 ;
C 113 ; WX 562 ; N q ; B 40 -193 493 536 ;
C 114 ; WX 428 ; N r ; B 67 0 410 536 ;
C 115 ; WX 537 ; N s ; B 48 -11 482 536 ;
C 116 ; WX 442 ; N t ; B 25 -11 380 729 ;
C 117 ; WX 584 ; N u ; B 62 -11 517 525 ;
C 118 ; WX 570 ; N v ; B 25 0 545 525 ;
C 119 ; WX 742 ; N w ; B 25 0 717 525 ;
C 120 ; WX 574 ; N x ; B 22 0 552 525 ;
C 121 ; WX 590 ; N y ; B 25 -185 565 525 ;
C 122 ; WX 554 ; N z ; B 60 0 494 525 ;
C 123 ; WX 460 ; N braceleft ; B 60 -110 407 705 ;
C 124 ; WX 285 ; N bar ; B 80 -185 205 800 ;
C 125 ; WX 460 ; N braceright ; B 53 -110 400 705 ;
C 126 ; WX 562 ; N asciitilde ; B 42 273 520 469 ;
C 127 ; WX 500 ; N .notdef ; B 85 -11 255 700 ;
C 128 ; WX 638 ; N Euro ; B 50 -11 601 711 ;
C 129 ; WX 500 ; N .notdef ; B 85 -11 255 700 ;
C 130 ; WX 281 ; N quotesinglbase ; B 61 -112 238 169 ;
C 131 ; WX 417 ; N florin ; B 55 -193 355 711 ;
C 132 ; WX 542 ; N quotedblbase ; B 61 -112 499 169 ;
C 133 ; WX 816 ; N ellipsis ; B 42 -11 774 177 ;
C 134 ; WX 594 ; N dagger ; B 55 -100 539 700 ;
C 135 ; WX 594 ; N daggerdbl ; B 55 -100 539 700 ;
C 136 ; WX 500 ; N circumflex ; B 58 595 442 755 ;
C 137 ; WX 1415 ; N perthousand ; B 38 -11 1385 711 ;
C 138 ; WX 661 ; N Scaron ; B 56 -11 603 910 ;
C 139 ; WX 376 ; N guilsinglleft ; B 30 0 336 525 ;
C 140 ; WX 1055 ; N OE ; B 53 -11 996 711 ;
C 141 ; WX 500 ; N .notdef ; B 85 -11 255 700 ;
C 142 ; WX 688 ; N Zcaron ; B 68 0 620 905 ;
C 143 ; WX 500 ; N .notdef ; B 85 -11 255 700 ;
C 144 ; WX 542 ; N quotedblbase ; B 61 -112 499 169 ;
C 145 ; WX 281 ; N quoteleft ; B 43 419 220 700 ;
C 146 ; WX 281 ; N quoteright ; B 61 419 238 700 ;
C 147 ; WX 542 ; N quotedblleft ; B 43 419 481 700 ;
C 148 ; WX 542 ; N quotedblright ; B 61 419 499 700 ;
C 149 ; WX 490 ; N bullet ; B 65 186 425 548 ;
C 150 ; WX 460 ; N endash ; B 55 299 405 427 ;
C 151 ; WX 620 ; N emdash ; B 55 299 565 427 ;
C 152 ; WX 500 ; N tilde ; B 57 592 449 739 ;
C 153 ; WX 830 ; N trademark ; B 19 294 789 700 ;
C 154 ; WX 537 ; N scaron ; B 48 -11 482 755 ;
C 155 ; WX 376 ; N guilsinglright ; B 40 0 346 525 ;
C 156 ; WX 860 ; N oe ; B 40 -11 817 536 ;
C 157 ; WX 500 ; N .notdef ; B 85 -11 255 700 ;
C 158 ; WX 554 ; N zcaron ; B 60 0 494 755 ;
C 159 ; WX 714 ; N Ydieresis ; B 22 0 692 890 ;
C 160 ; WX 290 ; N space ; B 85 -11 255 700 ;
C 161 ; WX 340 ; N exclamdown ; B 85 0 255 711 ;
C 162 ; WX 537 ; N cent ; B 40 -11 501 700 ;
C 163 ; WX 670 ; N sterling ; B 88 0 624 711 ;
C 164 ; WX 638 ; N currency ; B 50 -11 601 711 ;
C 165 ; WX 684 ; N yen ; B 22 0 662 700 ;
C 166 ; WX 800 ; N brokenbar ; B 20 -15 780 715 ;
C 167 ; WX 700 ; N section ; B 55 -164 645 711 ;
C 168 ; WX 500 ; N dieresis ; B 64 595 436 750 ;
C 169 ; WX 836 ; N copyright ; B 57 -11 779 711 ;
C 170 ; WX 477 ; N ordfeminine ; B 49 268 415 711 ;
C 171 ; WX 628 ; N guillemotleft ; B 30 0 588 525 ;
C 172 ; WX 650 ; N logicalnot ; B 45 192 630 500 ;
C 173 ; WX 407 ; N hyphen ; B 60 294 347 432 ;
C 174 ; WX 836 ; N registered ; B 57 -11 779 711 ;
C 175 ; WX 500 ; N macron ; B 105 610 395 715 ;
C 176 ; WX 486 ; N degree ; B 45 315 441 711 ;
C 177 ; WX 800 ; N plusminus ; B 20 -15 780 715 ;
C 178 ; WX 800 ; N twosuperior ; B 20 -15 780 715 ;
C 179 ; WX 800 ; N threesuperior ; B 20 -15 780 715 ;
C 180 ; WX 500 ; N acute ; B 138 595 400 755 ;
C 181 ; WX 800 ; N mu ; B 20 192 780 500 ;
C 182 ; WX 724 ; N paragraph ; B 47 -185 635 700 ;
C 183 ; WX 272 ; N periodcentered ; B 42 273 230 461 ;
C 184 ; WX 500 ; N cedilla ; B 127 -193 377 37 ;
C 185 ; WX 800 ; N onesuperior ; B 20 -15 780 715 ;
C 186 ; WX 491 ; N ordmasculine ; B 53 268 438 711 ;
C 187 ; WX 628 ; N guillemotright ; B 40 0 598 525 ;
C 188 ; WX 800 ; N onequarter ; B 20 -15 780 715 ;
C 189 ; WX 800 ; N onehalf ; B 20 -15 780 715 ;
C 190 ; WX 800 ; N threequarters ; B 20 -15 780 715 ;
C 191 ; WX 584 ; N questiondown ; B 38 -11 562 711 ;
C 192 ; WX 750 ; N Agrave ; B 40 0 710 905 ;
C 193 ; WX 750 ; N Aacute ; B 40 0 710 905 ;
C 194 ; WX 750 ; N Acircumflex ; B 40 0 710 905 ;
C 195 ; WX 750 ; N Atilde ; B 40 0 710 889 ;
C 196 ; WX 750 ; N Adieresis ; B 40 0 710 900 ;
C 197 ; WX 750 ; N Aring ; B 40 0 710 880 ;
C 198 ; WX 1038 ; N AE ; B 14 0 979 700 ;
C 199 ; WX 670 ; N Ccedilla ; B 53 -193 620 711 ;
C 200 ; WX 650 ; N Egrave ; B 90 0 591 905 ;
C 201 ; WX 650 ; N Eacute ; B 90 0 591 905 ;
C 202 ; WX 650 ; N Ecircumflex ; B 90 0 591 905 ;
C 203 ; WX 650 ; N Edieresis ; B 90 0 591 900 ;
C 204 ; WX 340 ; N Igrave ; B -29 0 240 905 ;
C 205 ; WX 340 ; N Iacute ; B 99 0 361 905 ;
C 206 ; WX 340 ; N Icircumflex ; B -22 0 362 895 ;
C 207 ; WX 340 ; N Idieresis ; B -16 0 356 895 ;
C 208 ; WX 722 ; N Eth ; B 40 0 672 700 ;
C 209 ; WX 747 ; N Ntilde ; B 90 0 657 889 ;
C 210 ; WX 719 ; N Ograve ; B 51 -11 668 905 ;
C 211 ; WX 719 ; N Oacute ; B 51 -11 668 905 ;
C 212 ; WX 719 ; N Ocircumflex ; B 51 -11 668 900 ;
C 213 ; WX 719 ; N Otilde ; B 51 -11 668 889 ;
C 214 ; WX 719 ; N Odieresis ; B 51 -11 668 900 ;
C 215 ; WX 800 ; N multiply ; B 20 -15 780 715 ;
C 216 ; WX 719 ; N Oslash ; B 53 -50 661 750 ;
C 217 ; WX 737 ; N Ugrave ; B 85 -11 652 890 ;
C 218 ; WX 737 ; N Uacute ; B 85 -11 652 890 ;
C 219 ; WX 737 ; N Ucircumflex ; B 85 -11 652 905 ;
C 220 ; WX 737 ; N Udieresis ; B 85 -11 652 900 ;
C 221 ; WX 714 ; N Yacute ; B 22 0 692 895 ;
C 222 ; WX 680 ; N Thorn ; B 90 0 637 700 ;
C 223 ; WX 586 ; N germandbls ; B 67 -193 546 726 ;
C 224 ; WX 556 ; N agrave ; B 42 -11 494 755 ;
C 225 ; WX 556 ; N aacute ; B 42 -11 494 755 ;
C 226 ; WX 556 ; N acircumflex ; B 42 -11 494 750 ;
C 227 ; WX 556 ; N atilde ; B 42 -11 494 739 ;
C 228 ; WX 556 ; N adieresis ; B 42 -11 494 745 ;
C 229 ; WX 556 ; N aring ; B 42 -11 494 863 ;
C 230 ; WX 843 ; N ae ; B 42 -11 800 536 ;
C 231 ; WX 537 ; N ccedilla ; B 40 -193 501 536 ;
C 232 ; WX 538 ; N egrave ; B 40 -11 495 755 ;
C 233 ; WX 538 ; N eacute ; B 40 -11 495 755 ;
C 234 ; WX 538 ; N ecircumflex ; B 40 -11 495 745 ;
C 235 ; WX 538 ; N edieresis ; B 40 -11 495 745 ;
C 236 ; WX 282 ; N igrave ; B -56 0 210 755 ;
C 237 ; WX 282 ; N iacute ; B 72 0 337 755 ;
C 238 ; WX 282 ; N icircumflex ; B -51 0 333 740 ;
C 239 ; WX 282 ; N idieresis ; B -45 0 327 740 ;
C 240 ; WX 555 ; N eth ; B 40 -11 515 711 ;
C 241 ; WX 584 ; N ntilde ; B 67 0 522 739 ;
C 242 ; WX 555 ; N ograve ; B 40 -11 515 755 ;
C 243 ; WX 555 ; N oacute ; B 40 -11 515 755 ;
C 244 ; WX 555 ; N ocircumflex ; B 40 -11 515 745 ;
C 245 ; WX 555 ; N otilde ; B 40 -11 515 739 ;
C 246 ; WX 555 ; N odieresis ; B 40 -11 515 740 ;
C 247 ; WX 800 ; N divide ; B 20 -15 780 715 ;
C 248 ; WX 555 ; N oslash ; B 40 -50 515 575 ;
C 249 ; WX 584 ; N ugrave ; B 62 -11 517 755 ;
C 250 ; WX 584 ; N uacute ; B 62 -11 517 755 ;
C 251 ; WX 584 ; N ucircumflex ; B 62 -11 517 755 ;
C 252 ; WX 584 ; N udieresis ; B 62 -11 517 750 ;
C 253 ; WX 590 ; N yacute ; B 25 -185 565 745 ;
C 254 ; WX 562 ; N thorn ; B 67 -193 520 729 ;
C 255 ; WX 590 ; N ydieresis ; B 25 -185 565 740 ;
C -1 ; WX 0 ; N .null ; B 85 -11 255 700 ;
C -1 ; WX 333 ; N CR ; B 85 -11 255 700 ;
C -1 ; WX 282 ; N dotlessi ; B 72 0 210 525 ;
C -1 ; WX 635 ; N Lslash ; B 40 0 596 700 ;
C -1 ; WX 322 ; N lslash ; B 35 0 287 729 ;
C -1 ; WX 500 ; N caron ; B 58 595 442 755 ;
C -1 ; WX 500 ; N breve ; B 63 595 437 755 ;
C -1 ; WX 500 ; N dotaccent ; B 171 595 327 750 ;
C -1 ; WX 500 ; N ring ; B 115 595 385 863 ;
C -1 ; WX 500 ; N ogonek ; B 153 -193 379 0 ;
C -1 ; WX 500 ; N hungarumlaut ; B 32 595 514 755 ;
C -1 ; WX 650 ; N increment ; B 20 192 605 500 ;
C -1 ; WX 440 ; N Omega ; B 66 0 374 715 ;
C -1 ; WX 836 ; N pi ; B 57 -11 779 711 ;
C -1 ; WX 493 ; N fraction ; B -62 0 555 700 ;
C -1 ; WX 440 ; N partialdiff ; B 66 -15 374 715 ;
C -1 ; WX 800 ; N product ; B 20 -15 780 715 ;
C -1 ; WX 800 ; N summation ; B 20 -15 780 715 ;
C -1 ; WX 800 ; N minus ; B 20 -15 780 715 ;
C -1 ; WX 677 ; N radical ; B 38 0 641 700 ;
C -1 ; WX 800 ; N infinity ; B 20 -15 780 715 ;
C -1 ; WX 562 ; N integral ; B 40 -11 493 536 ;
C -1 ; WX 440 ; N approxequal ; B 66 -15 374 700 ;
C -1 ; WX 800 ; N notequal ; B 20 -15 780 715 ;
C -1 ; WX 800 ; N lessequal ; B 20 -15 780 715 ;
C -1 ; WX 800 ; N greaterequal ; B 20 -15 780 715 ;
C -1 ; WX 800 ; N lozenge ; B 20 -15 780 715 ;
C -1 ; WX 800 ; N applelogo ; B 20 -15 780 715 ;
C -1 ; WX 645 ; N fi ; B 38 0 583 726 ;
C -1 ; WX 645 ; N fl ; B 38 0 573 729 ;
C -1 ; WX 0 ; N NUL ; B 30 366 1 0 ;
EndCharMetrics
EndFontMetrics
